<?xml version="1.0" encoding="UTF-8" standalone="no"?>
<!-- Created with Inkscape (http://www.inkscape.org/) -->

<svg
   xmlns:dc="http://purl.org/dc/elements/1.1/"
   xmlns:cc="http://creativecommons.org/ns#"
   xmlns:rdf="http://www.w3.org/1999/02/22-rdf-syntax-ns#"
   xmlns:svg="http://www.w3.org/2000/svg"
   xmlns="http://www.w3.org/2000/svg"
   xmlns:sodipodi="http://sodipodi.sourceforge.net/DTD/sodipodi-0.dtd"
   xmlns:inkscape="http://www.inkscape.org/namespaces/inkscape"
   width="210mm"
   height="297mm"
   viewBox="0 0 744.09448819 1052.3622047"
   id="svg3541"
   version="1.1"
   inkscape:version="0.91 r13725"
   sodipodi:docname="fig_04.svg">
  <defs
     id="defs3543" />
  <sodipodi:namedview
     id="base"
     pagecolor="#ffffff"
     bordercolor="#666666"
     borderopacity="1.0"
     inkscape:pageopacity="0.0"
     inkscape:pageshadow="2"
     inkscape:zoom="0.7"
     inkscape:cx="372.39687"
     inkscape:cy="726.42066"
     inkscape:document-units="px"
     inkscape:current-layer="g5400-81"
     showgrid="false"
     inkscape:window-width="1216"
     inkscape:window-height="1028"
     inkscape:window-x="704"
     inkscape:window-y="24"
     inkscape:window-maximized="0"
     showguides="true"
     inkscape:guide-bbox="true">
    <sodipodi:guide
       position="363.65492,656.59917"
       orientation="0,1"
       id="guide5449" />
  </sodipodi:namedview>
  <metadata
     id="metadata3546">
    <rdf:RDF>
      <cc:Work
         rdf:about="">
        <dc:format>image/svg+xml</dc:format>
        <dc:type
           rdf:resource="http://purl.org/dc/dcmitype/StillImage" />
        <dc:title></dc:title>
      </cc:Work>
    </rdf:RDF>
  </metadata>
  <g
     inkscape:label="Capa 1"
     inkscape:groupmode="layer"
     id="layer1">
    <g
       id="g4521"
       transform="translate(54.285711,5.7142846)">
      <g
         transform="translate(332.71429,-0.142889)"
         id="g4610-6">
        <g
           id="g4895-0"
           transform="translate(98.489876,218.63711)">
          <g
             style="stroke:#000000;stroke-width:1;stroke-miterlimit:4;stroke-dasharray:none;stroke-opacity:0.87383183"
             transform="translate(-12.20233,-26.141414)"
             id="g3625-5-4">
            <g
               id="g5400"
               transform="translate(0,-8)">
              <text
                 sodipodi:linespacing="125%"
                 id="text5354"
                 y="198.70612"
                 x="-443.9931"
                 style="font-style:normal;font-weight:normal;font-size:12.5px;line-height:125%;font-family:sans-serif;letter-spacing:0px;word-spacing:0px;fill:#000000;fill-opacity:1;stroke:none;stroke-width:1px;stroke-linecap:butt;stroke-linejoin:miter;stroke-opacity:1"
                 xml:space="preserve"><tspan
                   style="font-size:250px"
                   y="198.70612"
                   x="-443.9931"
                   id="tspan5356"
                   sodipodi:role="line">B</tspan></text>
              <g
                 transform="matrix(0,1.0531795,-0.54008206,0,-287.02893,308.36715)"
                 id="g5375"
                 style="stroke-width:2.25407243;stroke-miterlimit:4;stroke-dasharray:none">
                <path
                   style="fill:none;fill-rule:evenodd;stroke:#000000;stroke-width:2.25407243;stroke-linecap:butt;stroke-linejoin:miter;stroke-miterlimit:4;stroke-dasharray:none;stroke-opacity:1"
                   d="m -280.85349,250.22389 0,-182.83761"
                   id="path5358"
                   inkscape:connector-curvature="0"
                   sodipodi:nodetypes="cc" />
                <path
                   style="fill:none;fill-rule:evenodd;stroke:#000000;stroke-width:2.25407243;stroke-linecap:butt;stroke-linejoin:miter;stroke-miterlimit:4;stroke-dasharray:none;stroke-opacity:1"
                   d="m -282.81066,69.532853 1.8309,-2.872623 2.08344,2.683223"
                   id="path5373"
                   inkscape:connector-curvature="0"
                   sodipodi:nodetypes="ccc" />
              </g>
              <g
                 id="g5375-9"
                 style="stroke:#000000;stroke-width:1.70000005;stroke-miterlimit:4;stroke-dasharray:none;stroke-opacity:0.87383183"
                 transform="translate(-146.33154,-50.292447)">
                <path
                   style="fill:none;fill-rule:evenodd;stroke:#000000;stroke-width:1.70000005;stroke-linecap:butt;stroke-linejoin:miter;stroke-miterlimit:4;stroke-dasharray:none;stroke-opacity:1"
                   d="m -280.85349,250.22389 0,-182.83761"
                   id="path5358-6"
                   inkscape:connector-curvature="0"
                   sodipodi:nodetypes="cc" />
                <path
                   style="fill:none;fill-rule:evenodd;stroke:#000000;stroke-width:1.70000005;stroke-linecap:butt;stroke-linejoin:miter;stroke-miterlimit:4;stroke-dasharray:none;stroke-opacity:1"
                   d="m -282.81066,69.532853 1.8309,-2.872623 2.08344,2.683223"
                   id="path5373-3"
                   inkscape:connector-curvature="0"
                   sodipodi:nodetypes="ccc" />
              </g>
            </g>
            <g
               transform="translate(233.06896,-10.260454)"
               style="stroke:#000000;stroke-width:1;stroke-miterlimit:4;stroke-dasharray:none;stroke-opacity:0.87383183"
               id="g5400-8">
              <g
                 transform="matrix(0,1.0531795,-0.54008206,0,-287.02893,308.36715)"
                 id="g5375-1" />
              <g
                 id="g5453">
                <text
                   xml:space="preserve"
                   style="font-style:normal;font-weight:normal;font-size:12.5px;line-height:125%;font-family:sans-serif;letter-spacing:0px;word-spacing:0px;fill:#000000;fill-opacity:1;stroke:none;stroke-width:1px;stroke-linecap:butt;stroke-linejoin:miter;stroke-opacity:1"
                   x="-443.9931"
                   y="198.70612"
                   id="text5354-5"
                   sodipodi:linespacing="125%"><tspan
                     sodipodi:role="line"
                     id="tspan5356-6"
                     x="-443.9931"
                     y="198.70612"
                     style="font-size:250px">B</tspan></text>
                <path
                   sodipodi:nodetypes="cc"
                   inkscape:connector-curvature="0"
                   id="path5358-1"
                   d="M -281.14859,248.58562 -298.71768,68.986568"
                   style="fill:none;fill-rule:evenodd;stroke:#000000;stroke-width:2.25407243;stroke-linecap:butt;stroke-linejoin:miter;stroke-miterlimit:4;stroke-dasharray:none;stroke-opacity:1"
                   transform="matrix(0,1.0531795,-0.54008206,0,-287.02893,308.36715)" />
                <path
                   sodipodi:nodetypes="ccc"
                   inkscape:connector-curvature="0"
                   id="path5373-5"
                   d="m -300.43391,71.81027 1.52243,-3.490752 2.30438,1.874406"
                   style="fill:none;fill-rule:evenodd;stroke:#000000;stroke-width:2.25407243;stroke-linecap:butt;stroke-linejoin:miter;stroke-miterlimit:4;stroke-dasharray:none;stroke-opacity:1"
                   transform="matrix(0,1.0531795,-0.54008206,0,-287.02893,308.36715)" />
                <g
                   transform="translate(-146.33154,-50.292447)"
                   style="stroke:#000000;stroke-width:1.70000005;stroke-miterlimit:4;stroke-dasharray:none;stroke-opacity:0.87383183"
                   id="g5375-9-9">
                  <path
                     sodipodi:nodetypes="cc"
                     inkscape:connector-curvature="0"
                     id="path5358-6-8"
                     d="m -280.85349,250.22389 0,-182.83761"
                     style="fill:none;fill-rule:evenodd;stroke:#000000;stroke-width:1.70000005;stroke-linecap:butt;stroke-linejoin:miter;stroke-miterlimit:4;stroke-dasharray:none;stroke-opacity:1" />
                  <path
                     sodipodi:nodetypes="ccc"
                     inkscape:connector-curvature="0"
                     id="path5373-3-4"
                     d="m -282.81066,69.532853 1.8309,-2.872623 2.08344,2.683223"
                     style="fill:none;fill-rule:evenodd;stroke:#000000;stroke-width:1.70000005;stroke-linecap:butt;stroke-linejoin:miter;stroke-miterlimit:4;stroke-dasharray:none;stroke-opacity:1" />
                </g>
              </g>
            </g>
            <g
               transform="translate(462.37358,-4.2807593)"
               style="stroke:#000000;stroke-width:1;stroke-miterlimit:4;stroke-dasharray:none;stroke-opacity:0.87383183"
               id="g5400-81">
              <text
                 sodipodi:linespacing="125%"
                 id="text5354-0"
                 y="75.064384"
                 x="-433.89157"
                 style="font-style:normal;font-weight:normal;font-size:12.5px;line-height:125%;font-family:sans-serif;letter-spacing:0px;word-spacing:0px;fill:#000000;fill-opacity:1;stroke:none;stroke-width:1px;stroke-linecap:butt;stroke-linejoin:miter;stroke-opacity:1"
                 xml:space="preserve"
                 transform="matrix(1,-0.30439525,0,1,0,0)"><tspan
                   style="font-size:250px"
                   y="75.064384"
                   x="-433.89157"
                   id="tspan5356-3"
                   sodipodi:role="line">B</tspan></text>
              <g
                 transform="matrix(0,1.0531795,-0.54008206,0.16439842,-276.9274,269.02081)"
                 id="g5375-0"
                 style="stroke-width:2.25407233;stroke-miterlimit:4;stroke-dasharray:none">
                <path
                   style="fill:none;fill-rule:evenodd;stroke:#000000;stroke-width:2.25407233;stroke-linecap:butt;stroke-linejoin:miter;stroke-opacity:1;stroke-miterlimit:4;stroke-dasharray:none"
                   d="m -280.85349,250.22389 0,-182.83761"
                   id="path5358-4"
                   inkscape:connector-curvature="0"
                   sodipodi:nodetypes="cc" />
                <path
                   style="fill:none;fill-rule:evenodd;stroke:#000000;stroke-width:2.25407233;stroke-linecap:butt;stroke-linejoin:miter;stroke-opacity:1;stroke-miterlimit:4;stroke-dasharray:none"
                   d="m -282.81066,69.532853 1.8309,-2.872623 2.08344,2.683223"
                   id="path5373-4"
                   inkscape:connector-curvature="0"
                   sodipodi:nodetypes="ccc" />
              </g>
              <g
                 id="g5375-9-4"
                 style="stroke:#000000;stroke-width:1;stroke-miterlimit:4;stroke-dasharray:none;stroke-opacity:0.87383183"
                 transform="translate(-146.33154,-50.292447)">
                <path
                   style="fill:none;fill-rule:evenodd;stroke:#000000;stroke-width:1.7;stroke-linecap:butt;stroke-linejoin:miter;stroke-opacity:1;stroke-miterlimit:4;stroke-dasharray:none"
                   d="m -270.75196,253.5404 0,-182.837608"
                   id="path5358-6-4"
                   inkscape:connector-curvature="0"
                   sodipodi:nodetypes="cc" />
                <path
                   style="fill:none;fill-rule:evenodd;stroke:#000000;stroke-width:1.7;stroke-linecap:butt;stroke-linejoin:miter;stroke-opacity:1;stroke-miterlimit:4;stroke-dasharray:none"
                   d="m -272.70913,73.445118 1.8309,-3.42994 2.08344,2.049034"
                   id="path5373-3-7"
                   inkscape:connector-curvature="0"
                   sodipodi:nodetypes="ccc" />
              </g>
              <rect
                 style="opacity:1;fill:none;stroke:#000000;stroke-width:1.70000005;stroke-miterlimit:4;stroke-dasharray:none;stroke-opacity:0.87383183"
                 id="rect5501"
                 width="214.28572"
                 height="248.57143"
                 x="-922.80402"
                 y="-28.566986" />
              <rect
                 style="opacity:1;fill:none;stroke:#000000;stroke-width:1.70000005;stroke-miterlimit:4;stroke-dasharray:none;stroke-opacity:0.87383183"
                 id="rect5501-6"
                 width="214.28572"
                 height="248.57143"
                 x="-691.08972"
                 y="-29.99556" />
              <rect
                 style="opacity:1;fill:none;stroke:#000000;stroke-width:1.70000005;stroke-miterlimit:4;stroke-dasharray:none;stroke-opacity:0.87383183"
                 id="rect5501-3"
                 width="214.28572"
                 height="248.57143"
                 x="-458.51828"
                 y="-28.709841" />
            </g>
          </g>
        </g>
      </g>
    </g>
  </g>
</svg>
