<?xml version="1.0" encoding="UTF-8" standalone="no"?>
<!-- Created with Inkscape (http://www.inkscape.org/) -->

<svg
   xmlns:dc="http://purl.org/dc/elements/1.1/"
   xmlns:cc="http://creativecommons.org/ns#"
   xmlns:rdf="http://www.w3.org/1999/02/22-rdf-syntax-ns#"
   xmlns:svg="http://www.w3.org/2000/svg"
   xmlns="http://www.w3.org/2000/svg"
   xmlns:sodipodi="http://sodipodi.sourceforge.net/DTD/sodipodi-0.dtd"
   xmlns:inkscape="http://www.inkscape.org/namespaces/inkscape"
   width="210mm"
   height="297mm"
   viewBox="0 0 744.09448819 1052.3622047"
   id="svg3541"
   version="1.1"
   inkscape:version="0.91 r13725"
   sodipodi:docname="fig_2.svg">
  <defs
     id="defs3543" />
  <sodipodi:namedview
     id="base"
     pagecolor="#ffffff"
     bordercolor="#666666"
     borderopacity="1.0"
     inkscape:pageopacity="0.0"
     inkscape:pageshadow="2"
     inkscape:zoom="0.7"
     inkscape:cx="409.08599"
     inkscape:cy="287.5993"
     inkscape:document-units="px"
     inkscape:current-layer="g3625-5"
     showgrid="false"
     inkscape:window-width="934"
     inkscape:window-height="1028"
     inkscape:window-x="986"
     inkscape:window-y="24"
     inkscape:window-maximized="0" />
  <metadata
     id="metadata3546">
    <rdf:RDF>
      <cc:Work
         rdf:about="">
        <dc:format>image/svg+xml</dc:format>
        <dc:type
           rdf:resource="http://purl.org/dc/dcmitype/StillImage" />
        <dc:title></dc:title>
      </cc:Work>
    </rdf:RDF>
  </metadata>
  <g
     inkscape:label="Capa 1"
     inkscape:groupmode="layer"
     id="layer1">
    <g
       id="g4521"
       transform="translate(54.285711,5.7142846)">
      <rect
         y="292.36221"
         x="15.714286"
         height="352.85715"
         width="318.57144"
         id="rect3702"
         style="opacity:0;fill:none;stroke-width:2;stroke-miterlimit:4;stroke-dasharray:none" />
      <g
         id="g4610"
         transform="translate(-23.571429,-1.4285715)">
        <g
           id="g3625">
          <path
             inkscape:connector-curvature="0"
             id="path3553"
             d="m 110.84081,348.1671 60.37712,267.91661"
             style="fill:none;fill-rule:evenodd;stroke:#000000;stroke-width:0.89503342px;stroke-linecap:butt;stroke-linejoin:miter;stroke-opacity:1" />
          <path
             inkscape:connector-curvature="0"
             id="path3555"
             d="m 139.85319,476.90625 100.16308,-22.57254 -5.29868,-4.74712"
             style="fill:none;fill-rule:evenodd;stroke:#000000;stroke-width:0.89503342px;stroke-linecap:butt;stroke-linejoin:miter;stroke-opacity:1" />
          <path
             inkscape:connector-curvature="0"
             id="path3557"
             d="m 240.11429,454.76866 -3.14237,4.82126"
             style="fill:none;fill-rule:evenodd;stroke:#000000;stroke-width:0.89503342px;stroke-linecap:butt;stroke-linejoin:miter;stroke-opacity:1" />
          <path
             inkscape:connector-curvature="0"
             id="path3559"
             d="m 116.14959,351.48548 -5.35364,-2.90671 -2.94626,5.69119"
             style="fill:none;fill-rule:evenodd;stroke:#000000;stroke-width:0.89503342px;stroke-linecap:butt;stroke-linejoin:miter;stroke-opacity:1" />
          <path
             inkscape:connector-curvature="0"
             id="path3561"
             d="m 140.99874,484.67722 9.32755,-2.10204 -1.69802,-7.53476"
             style="fill:none;fill-rule:evenodd;stroke:#000000;stroke-width:0.89503342px;stroke-linecap:butt;stroke-linejoin:miter;stroke-opacity:1" />
          <text
             transform="matrix(0.98915213,-0.22291325,0.216818,0.96210519,0,0)"
             sodipodi:linespacing="125%"
             id="text3563"
             y="653.44354"
             x="32.507797"
             style="font-style:normal;font-weight:normal;font-size:35.80131149px;line-height:125%;font-family:sans-serif;letter-spacing:0px;word-spacing:0px;fill:#000000;fill-opacity:1;stroke:none;stroke-width:1px;stroke-linecap:butt;stroke-linejoin:miter;stroke-opacity:1"
             xml:space="preserve"><tspan
               style="font-size:11.1879158px"
               y="653.44354"
               x="32.507797"
               id="tspan3565"
               sodipodi:role="line">P</tspan></text>
          <text
             transform="matrix(0.98915213,-0.22291325,0.216818,0.96210519,0,0)"
             sodipodi:linespacing="125%"
             id="text3585"
             y="577.49811"
             x="32.959854"
             style="font-style:normal;font-weight:normal;font-size:35.80131149px;line-height:125%;font-family:sans-serif;letter-spacing:0px;word-spacing:0px;fill:#000000;fill-opacity:1;stroke:none;stroke-width:1px;stroke-linecap:butt;stroke-linejoin:miter;stroke-opacity:1"
             xml:space="preserve"><tspan
               style="font-size:11.1879158px"
               y="577.49811"
               x="32.959854"
               id="tspan3587"
               sodipodi:role="line">u</tspan></text>
          <text
             transform="matrix(0.98915213,-0.22291325,0.216818,0.96210519,0,0)"
             sodipodi:linespacing="125%"
             id="text3585-7"
             y="499.63263"
             x="77.817596"
             style="font-style:normal;font-weight:normal;font-size:35.80131149px;line-height:125%;font-family:sans-serif;letter-spacing:0px;word-spacing:0px;fill:#000000;fill-opacity:1;stroke:none;stroke-width:1px;stroke-linecap:butt;stroke-linejoin:miter;stroke-opacity:1"
             xml:space="preserve"><tspan
               style="font-size:11.1879158px"
               y="499.63263"
               x="77.817596"
               id="tspan3587-9"
               sodipodi:role="line">v</tspan></text>
          <text
             transform="matrix(0.98915213,-0.22291325,0.216818,0.96210519,0,0)"
             sodipodi:linespacing="125%"
             id="text3585-2"
             y="505.96118"
             x="135.22926"
             style="font-style:normal;font-weight:normal;font-size:35.80131149px;line-height:125%;font-family:sans-serif;letter-spacing:0px;word-spacing:0px;fill:#000000;fill-opacity:1;stroke:none;stroke-width:1px;stroke-linecap:butt;stroke-linejoin:miter;stroke-opacity:1"
             xml:space="preserve"><tspan
               style="font-size:11.1879158px"
               y="505.96118"
               x="135.22926"
               id="tspan3587-0"
               sodipodi:role="line">X</tspan></text>
          <text
             transform="matrix(0.98915213,-0.22291325,0.216818,0.96210519,0,0)"
             sodipodi:linespacing="125%"
             id="text3585-23"
             y="364.46667"
             x="28.091032"
             style="font-style:normal;font-weight:normal;font-size:35.80131149px;line-height:125%;font-family:sans-serif;letter-spacing:0px;word-spacing:0px;fill:#000000;fill-opacity:1;stroke:none;stroke-width:1px;stroke-linecap:butt;stroke-linejoin:miter;stroke-opacity:1"
             xml:space="preserve"><tspan
               style="font-size:11.1879158px"
               y="364.46667"
               x="28.091032"
               id="tspan3587-7"
               sodipodi:role="line">Q</tspan></text>
        </g>
        <rect
           style="opacity:1;fill:none;stroke:#000000;stroke-width:1.5;stroke-miterlimit:4;stroke-dasharray:none;stroke-opacity:0.87383183"
           id="rect4519"
           width="326.18192"
           height="327.6105"
           x="18.337608"
           y="309.27127" />
      </g>
      <g
         transform="translate(332.71429,-0.142889)"
         id="g4610-6">
        <g
           id="g3625-5">
          <path
             inkscape:connector-curvature="0"
             id="path3553-6"
             d="m 188.37064,337.67557 -80.7993,262.48082"
             style="fill:none;fill-rule:evenodd;stroke:#000000;stroke-width:0.89503342px;stroke-linecap:butt;stroke-linejoin:miter;stroke-opacity:1" />
          <path
             inkscape:connector-curvature="0"
             id="path3555-9"
             d="m 149.54499,463.80272 98.13088,30.20756 -2.23807,-6.75296"
             style="fill:none;fill-rule:evenodd;stroke:#000000;stroke-width:0.89503342px;stroke-linecap:butt;stroke-linejoin:miter;stroke-opacity:1" />
          <path
             inkscape:connector-curvature="0"
             id="path3557-3"
             d="m 247.54468,494.4364 -5.12333,2.62116"
             style="fill:none;fill-rule:evenodd;stroke:#000000;stroke-width:0.89503342px;stroke-linecap:butt;stroke-linejoin:miter;stroke-opacity:1" />
          <path
             inkscape:connector-curvature="0"
             id="path3559-7"
             d="m 191.32732,343.19397 -3.20025,-5.18351 -5.38564,3.47349"
             style="fill:none;fill-rule:evenodd;stroke:#000000;stroke-width:0.89503342px;stroke-linecap:butt;stroke-linejoin:miter;stroke-opacity:1" />
          <path
             inkscape:connector-curvature="0"
             id="path3561-4"
             d="m 146.67586,471.11491 9.1383,2.81304 2.27235,-7.38189"
             style="fill:none;fill-rule:evenodd;stroke:#000000;stroke-width:0.89503342px;stroke-linecap:butt;stroke-linejoin:miter;stroke-opacity:1" />
          <text
             transform="matrix(0.96908312,0.29831219,-0.29015528,0.94258493,0,0)"
             sodipodi:linespacing="125%"
             id="text3563-5"
             y="555.38782"
             x="276.88983"
             style="font-style:normal;font-weight:normal;font-size:35.80131149px;line-height:125%;font-family:sans-serif;letter-spacing:0px;word-spacing:0px;fill:#000000;fill-opacity:1;stroke:none;stroke-width:1px;stroke-linecap:butt;stroke-linejoin:miter;stroke-opacity:1"
             xml:space="preserve"><tspan
               style="font-size:11.1879158px"
               y="555.38782"
               x="276.88983"
               id="tspan3565-2"
               sodipodi:role="line">P'</tspan></text>
          <text
             transform="matrix(0.96908312,0.29831219,-0.29015528,0.94258493,0,0)"
             sodipodi:linespacing="125%"
             id="text3585-5"
             y="479.44241"
             x="277.34189"
             style="font-style:normal;font-weight:normal;font-size:35.80131149px;line-height:125%;font-family:sans-serif;letter-spacing:0px;word-spacing:0px;fill:#000000;fill-opacity:1;stroke:none;stroke-width:1px;stroke-linecap:butt;stroke-linejoin:miter;stroke-opacity:1"
             xml:space="preserve"><tspan
               style="font-size:11.1879158px"
               y="479.44241"
               x="277.34189"
               id="tspan3587-4"
               sodipodi:role="line">u</tspan></text>
          <text
             transform="matrix(0.96908312,0.29831219,-0.29015528,0.94258493,0,0)"
             sodipodi:linespacing="125%"
             id="text3585-7-7"
             y="401.57697"
             x="322.19962"
             style="font-style:normal;font-weight:normal;font-size:35.80131149px;line-height:125%;font-family:sans-serif;letter-spacing:0px;word-spacing:0px;fill:#000000;fill-opacity:1;stroke:none;stroke-width:1px;stroke-linecap:butt;stroke-linejoin:miter;stroke-opacity:1"
             xml:space="preserve"><tspan
               style="font-size:11.1879158px"
               y="401.57697"
               x="322.19962"
               id="tspan3587-9-4"
               sodipodi:role="line">v</tspan></text>
          <text
             transform="matrix(0.96908312,0.29831219,-0.29015528,0.94258493,0,0)"
             sodipodi:linespacing="125%"
             id="text3585-2-4"
             y="407.90552"
             x="379.61133"
             style="font-style:normal;font-weight:normal;font-size:35.80131149px;line-height:125%;font-family:sans-serif;letter-spacing:0px;word-spacing:0px;fill:#000000;fill-opacity:1;stroke:none;stroke-width:1px;stroke-linecap:butt;stroke-linejoin:miter;stroke-opacity:1"
             xml:space="preserve"><tspan
               style="font-size:11.1879158px"
               y="407.90552"
               x="379.61133"
               id="tspan3587-0-3"
               sodipodi:role="line">X'</tspan></text>
          <text
             transform="matrix(0.96908312,0.29831219,-0.29015528,0.94258493,0,0)"
             sodipodi:linespacing="125%"
             id="text3585-23-0"
             y="266.41101"
             x="272.47305"
             style="font-style:normal;font-weight:normal;font-size:35.80131149px;line-height:125%;font-family:sans-serif;letter-spacing:0px;word-spacing:0px;fill:#000000;fill-opacity:1;stroke:none;stroke-width:1px;stroke-linecap:butt;stroke-linejoin:miter;stroke-opacity:1"
             xml:space="preserve"><tspan
               style="font-size:11.1879158px"
               y="266.41101"
               x="272.47305"
               id="tspan3587-7-7"
               sodipodi:role="line">Q'</tspan></text>
        </g>
        <rect
           style="opacity:1;fill:none;stroke:#000000;stroke-width:1.5;stroke-miterlimit:4;stroke-dasharray:none;stroke-opacity:0.87383183"
           id="rect4519-8"
           width="326.18192"
           height="327.6105"
           x="18.337608"
           y="309.27127" />
      </g>
    </g>
  </g>
</svg>
