\relax 
\catcode `"\active 
\catcode `<\active 
\catcode `>\active 
\@nameuse{es@quoting}
\AC@reset@newl@bel
\select@language{spanish}
\@writefile{toc}{\select@language{spanish}}
\@writefile{lof}{\select@language{spanish}}
\@writefile{lot}{\select@language{spanish}}
\citation{transformgeo}
\citation{beier}
\citation{beier}
\citation{beier}
\citation{beier}
\@writefile{toc}{\contentsline {section}{\numberline {1}Introducci\IeC {\'o}n}{4}}
\@writefile{toc}{\contentsline {subsection}{\numberline {1.1}Datos personales}{5}}
\@writefile{toc}{\contentsline {subsubsection}{\numberline {1.1.1}Estudiante}{5}}
\@writefile{toc}{\contentsline {subsubsection}{\numberline {1.1.2}Tutor Acad\IeC {\'e}mico - Industrial}{5}}
\@writefile{toc}{\contentsline {subsection}{\numberline {1.2}Instituci\IeC {\'o}n donde se realizo la Pasant\IeC {\'\i }a}{6}}
\@writefile{toc}{\contentsline {section}{\numberline {2}Descripci\IeC {\'o}n}{7}}
\@writefile{toc}{\contentsline {subsection}{\numberline {2.1}Objetivos}{7}}
\@writefile{toc}{\contentsline {subsubsection}{\numberline {2.1.1}Generales}{7}}
\@writefile{toc}{\contentsline {subsubsection}{\numberline {2.1.2}Espec\IeC {\'\i }ficos}{7}}
\citation{imagendef}
\citation{imagendef}
\citation{procdef}
\citation{transformgeo}
\@writefile{toc}{\contentsline {subsection}{\numberline {2.2}Procesamiento digital de Imagen}{8}}
\@writefile{toc}{\contentsline {subsubsection}{\numberline {2.2.1}Transformaci\IeC {\'o}n de Im\IeC {\'a}genes}{8}}
\citation{transformgeo}
\citation{transformgeo}
\@writefile{lof}{\contentsline {figure}{\numberline {1}{\ignorespaces Ejemplo transformaci\IeC {\'o}n ``empuje en direcci\IeC {\'o}n horizontal'' \cite  {transformgeo}.\relax }}{9}}
\providecommand*\caption@xref[2]{\@setref\relax\@undefined{#1}}
\newlabel{fig:transform_1}{{1}{9}}
\@writefile{lof}{\contentsline {figure}{\numberline {2}{\ignorespaces ``Empuje en direcci\IeC {\'o}n horizontal'' imagen en escala de grises.\relax }}{9}}
\newlabel{fig:ejemplotranf_1}{{2}{9}}
\@writefile{lof}{\contentsline {subfigure}{\numberline{(a)}{\ignorespaces {Imagen inicial}}}{9}}
\@writefile{lof}{\contentsline {subfigure}{\numberline{(b)}{\ignorespaces {Imagen final}}}{9}}
\@writefile{lof}{\contentsline {figure}{\numberline {3}{\ignorespaces M\IeC {\'e}todo de transformaci\IeC {\'o}n ``P\IeC {\'\i }xel mas cercano''. Obtenida de \textit  {Presentaci\IeC {\'o}n web: Interpolaci\IeC {\'o}n de imagen}\relax }}{10}}
\newlabel{fig:mascercano}{{3}{10}}
\@writefile{lof}{\contentsline {subfigure}{\numberline{(a)}{\ignorespaces {Imagen inicial}}}{10}}
\@writefile{lof}{\contentsline {subfigure}{\numberline{(b)}{\ignorespaces {Imagen final}}}{10}}
\@writefile{lof}{\contentsline {figure}{\numberline {4}{\ignorespaces M\IeC {\'e}todo de transformaci\IeC {\'o}n ``Bilineal''. Obtenida de \textit  {Presentaci\IeC {\'o}n web: Interpolaci\IeC {\'o}n de imagen}\relax }}{10}}
\newlabel{fig:bilinial}{{4}{10}}
\@writefile{lof}{\contentsline {subfigure}{\numberline{(a)}{\ignorespaces {Imagen inicial}}}{10}}
\@writefile{lof}{\contentsline {subfigure}{\numberline{(b)}{\ignorespaces {Imagen final}}}{10}}
\@writefile{lof}{\contentsline {figure}{\numberline {5}{\ignorespaces M\IeC {\'e}todo de transformaci\IeC {\'o}n ``Bic\IeC {\'u}bica''. Obtenida de \textit  {Presentaci\IeC {\'o}n web: Interpolaci\IeC {\'o}n de imagen}\relax }}{11}}
\newlabel{fig:bicubica}{{5}{11}}
\@writefile{lof}{\contentsline {subfigure}{\numberline{(a)}{\ignorespaces {Imagen inicial}}}{11}}
\@writefile{lof}{\contentsline {subfigure}{\numberline{(b)}{\ignorespaces {Imagen final}}}{11}}
\citation{beier}
\citation{beier}
\citation{beier}
\@writefile{toc}{\contentsline {subsubsection}{\numberline {2.2.2}Algoritmo Beier y Neely\IeC {\textquoteright }s}{12}}
\citation{beier}
\citation{beier}
\citation{beier}
\citation{beier}
\@writefile{lof}{\contentsline {figure}{\numberline {6}{\ignorespaces Par de segmentos simples. [Adaptado de\cite  {beier}]\relax }}{13}}
\newlabel{fig:par_simplle}{{6}{13}}
\@writefile{lof}{\contentsline {subfigure}{\numberline{(a)}{\ignorespaces {Imagen destino}}}{13}}
\@writefile{lof}{\contentsline {subfigure}{\numberline{(b)}{\ignorespaces {Imagen origen}}}{13}}
\@writefile{lof}{\contentsline {figure}{\numberline {7}{\ignorespaces Ejemplos de un solo segmento. [Adaptado de\cite  {beier}]\relax }}{13}}
\newlabel{fig:1segmento_b}{{7}{13}}
\@writefile{lof}{\contentsline {subfigure}{\numberline{(a)}{\ignorespaces {}}}{13}}
\@writefile{lof}{\contentsline {subfigure}{\numberline{(b)}{\ignorespaces {}}}{13}}
\@writefile{lof}{\contentsline {subfigure}{\numberline{(c)}{\ignorespaces {}}}{13}}
\@writefile{lof}{\contentsline {subfigure}{\numberline{(d)}{\ignorespaces {}}}{13}}
\citation{beier}
\citation{beier}
\citation{beier}
\citation{beier}
\citation{beier}
\@writefile{lof}{\contentsline {figure}{\numberline {8}{\ignorespaces Par de segmentos m\IeC {\'u}ltiples. [Adaptado de\cite  {beier}]\relax }}{15}}
\newlabel{fig:2segmentosimples}{{8}{15}}
\@writefile{lof}{\contentsline {subfigure}{\numberline{(a)}{\ignorespaces {Imagen destino}}}{15}}
\@writefile{lof}{\contentsline {subfigure}{\numberline{(b)}{\ignorespaces {Imagen origen}}}{15}}
\@writefile{lof}{\contentsline {figure}{\numberline {9}{\ignorespaces Ejemplo con dos segmentos. [Adaptado de\cite  {beier}]\relax }}{15}}
\newlabel{fig:2segmento_b}{{9}{15}}
\@writefile{lof}{\contentsline {subfigure}{\numberline{(a)}{\ignorespaces {Imagen origen}}}{15}}
\@writefile{lof}{\contentsline {subfigure}{\numberline{(b)}{\ignorespaces {Segmentos finales}}}{15}}
\@writefile{lof}{\contentsline {subfigure}{\numberline{(c)}{\ignorespaces {Imagen destino}}}{15}}
\@writefile{toc}{\contentsline {subsubsection}{\numberline {2.2.3}Algoritmo Polyline}{15}}
\@writefile{toc}{\contentsline {subsection}{\numberline {2.3}Herramientas de trabajo}{15}}
\@writefile{toc}{\contentsline {subsection}{\numberline {2.4}Actividades realizadas}{16}}
\@writefile{toc}{\contentsline {subsubsection}{\numberline {2.4.1}Plan de trabajo}{16}}
\@writefile{toc}{\contentsline {subsubsection}{\numberline {2.4.2}Cronograma de actividades}{16}}
\@writefile{toc}{\contentsline {subsubsection}{\numberline {2.4.3}Descripci\IeC {\'o}n detallada de las actividades}{16}}
\@writefile{toc}{\contentsline {section}{\numberline {3}Metodolog\IeC {\'\i }a}{16}}
\@writefile{toc}{\contentsline {subsection}{\numberline {3.1}An\IeC {\'a}lisis e implementaci\IeC {\'o}n}{16}}
\@writefile{toc}{\contentsline {subsection}{\numberline {3.2}Ejemplos Morphing Beier \& Neely\IeC {\textquoteright }s}{17}}
\@writefile{toc}{\contentsline {subsubsection}{\numberline {3.2.1}1- Segmento}{17}}
\@writefile{lof}{\contentsline {figure}{\numberline {10}{\ignorespaces 1- Segmento (Beier \& Neely) - Traslaci\IeC {\'o}n\relax }}{17}}
\newlabel{ejemplo_01_1sg}{{10}{17}}
\@writefile{lof}{\contentsline {subfigure}{\numberline{(a)}{\ignorespaces {Input}}}{17}}
\@writefile{lof}{\contentsline {subfigure}{\numberline{(b)}{\ignorespaces {Output}}}{17}}
\@writefile{lof}{\contentsline {subfigure}{\numberline{(c)}{\ignorespaces {Segmento (in)}}}{17}}
\@writefile{lof}{\contentsline {subfigure}{\numberline{(d)}{\ignorespaces {Segmento (out)}}}{17}}
\@writefile{lof}{\contentsline {figure}{\numberline {11}{\ignorespaces 1- Segmento (Beier \& Neely) - Ensanchamiento\relax }}{18}}
\newlabel{ejemplo_02_1sg}{{11}{18}}
\@writefile{lof}{\contentsline {subfigure}{\numberline{(a)}{\ignorespaces {Input}}}{18}}
\@writefile{lof}{\contentsline {subfigure}{\numberline{(b)}{\ignorespaces {Output}}}{18}}
\@writefile{lof}{\contentsline {subfigure}{\numberline{(c)}{\ignorespaces {Segmento (in)}}}{18}}
\@writefile{lof}{\contentsline {subfigure}{\numberline{(d)}{\ignorespaces {Segmento (out)}}}{18}}
\@writefile{lof}{\contentsline {figure}{\numberline {12}{\ignorespaces 1- Segmento (Beier \& Neely) - Rotaci\IeC {\'o}n\relax }}{18}}
\newlabel{ejemplo_03_1sg}{{12}{18}}
\@writefile{lof}{\contentsline {subfigure}{\numberline{(a)}{\ignorespaces {Input}}}{18}}
\@writefile{lof}{\contentsline {subfigure}{\numberline{(b)}{\ignorespaces {Output}}}{18}}
\@writefile{lof}{\contentsline {subfigure}{\numberline{(c)}{\ignorespaces {Segmento (in)}}}{18}}
\@writefile{lof}{\contentsline {subfigure}{\numberline{(d)}{\ignorespaces {Segmento (out)}}}{18}}
\@writefile{lof}{\contentsline {figure}{\numberline {13}{\ignorespaces 1- Segmento (Beier \& Neely) - Traslaci\IeC {\'o}n y rotaci\IeC {\'o}n\relax }}{19}}
\newlabel{ejemplo_04_1sg}{{13}{19}}
\@writefile{lof}{\contentsline {subfigure}{\numberline{(a)}{\ignorespaces {Input}}}{19}}
\@writefile{lof}{\contentsline {subfigure}{\numberline{(b)}{\ignorespaces {Output}}}{19}}
\@writefile{lof}{\contentsline {subfigure}{\numberline{(c)}{\ignorespaces {Segmento (in)}}}{19}}
\@writefile{lof}{\contentsline {subfigure}{\numberline{(d)}{\ignorespaces {Segmento (out)}}}{19}}
\@writefile{toc}{\contentsline {subsubsection}{\numberline {3.2.2}2- Segmentos}{19}}
\@writefile{lof}{\contentsline {figure}{\numberline {14}{\ignorespaces 2- Segmentos (Beier \& Neely) - Rotaci\IeC {\'o}n de uno de los dos segmentos\relax }}{19}}
\newlabel{ejemplo_01_2sg}{{14}{19}}
\@writefile{lof}{\contentsline {subfigure}{\numberline{(a)}{\ignorespaces {Input}}}{19}}
\@writefile{lof}{\contentsline {subfigure}{\numberline{(b)}{\ignorespaces {Output}}}{19}}
\@writefile{lof}{\contentsline {subfigure}{\numberline{(c)}{\ignorespaces {Segmento (in)}}}{19}}
\@writefile{lof}{\contentsline {subfigure}{\numberline{(d)}{\ignorespaces {Segmento (out)}}}{19}}
\@writefile{lof}{\contentsline {figure}{\numberline {15}{\ignorespaces 2- Segmentos (Beier \& Neely) - Rotaci\IeC {\'o}n de ambos segmentos (interior)\relax }}{20}}
\newlabel{ejemplo_02_2sg}{{15}{20}}
\@writefile{lof}{\contentsline {subfigure}{\numberline{(a)}{\ignorespaces {Input}}}{20}}
\@writefile{lof}{\contentsline {subfigure}{\numberline{(b)}{\ignorespaces {Output}}}{20}}
\@writefile{lof}{\contentsline {subfigure}{\numberline{(c)}{\ignorespaces {Segmento (in)}}}{20}}
\@writefile{lof}{\contentsline {subfigure}{\numberline{(d)}{\ignorespaces {Segmento (out)}}}{20}}
\@writefile{lof}{\contentsline {figure}{\numberline {16}{\ignorespaces 2- Segmentos (Beier \& Neely) - Rotaci\IeC {\'o}n de ambos segmentos (exterior)\relax }}{20}}
\newlabel{ejemplo_03_2sg}{{16}{20}}
\@writefile{lof}{\contentsline {subfigure}{\numberline{(a)}{\ignorespaces {Input}}}{20}}
\@writefile{lof}{\contentsline {subfigure}{\numberline{(b)}{\ignorespaces {Output}}}{20}}
\@writefile{lof}{\contentsline {subfigure}{\numberline{(c)}{\ignorespaces {Segmento (in)}}}{20}}
\@writefile{lof}{\contentsline {subfigure}{\numberline{(d)}{\ignorespaces {Segmento (out)}}}{20}}
\@writefile{lof}{\contentsline {figure}{\numberline {17}{\ignorespaces 2- Segmentos (Beier \& Neely) - Reducci\IeC {\'o}n de ambos segmentos\relax }}{21}}
\newlabel{ejemplo_04_2sg}{{17}{21}}
\@writefile{lof}{\contentsline {subfigure}{\numberline{(a)}{\ignorespaces {Input}}}{21}}
\@writefile{lof}{\contentsline {subfigure}{\numberline{(b)}{\ignorespaces {Output}}}{21}}
\@writefile{lof}{\contentsline {subfigure}{\numberline{(c)}{\ignorespaces {Segmento (in)}}}{21}}
\@writefile{lof}{\contentsline {subfigure}{\numberline{(d)}{\ignorespaces {Segmento (out)}}}{21}}
\@writefile{toc}{\contentsline {subsubsection}{\numberline {3.2.3}3- Segmentos}{21}}
\@writefile{lof}{\contentsline {figure}{\numberline {18}{\ignorespaces 3- Segmentos (Beier \& Neely) - Rotaci\IeC {\'o}n de un segmento\relax }}{22}}
\newlabel{ejemplo_01_3sg}{{18}{22}}
\@writefile{lof}{\contentsline {subfigure}{\numberline{(a)}{\ignorespaces {Input}}}{22}}
\@writefile{lof}{\contentsline {subfigure}{\numberline{(b)}{\ignorespaces {Output}}}{22}}
\@writefile{lof}{\contentsline {subfigure}{\numberline{(c)}{\ignorespaces {Segmento (in)}}}{22}}
\@writefile{lof}{\contentsline {subfigure}{\numberline{(d)}{\ignorespaces {Segmento (out)}}}{22}}
\@writefile{lof}{\contentsline {figure}{\numberline {19}{\ignorespaces 3- Segmentos (Beier \& Neely) - Rotaci\IeC {\'o}n de dos segmentos (interna)\relax }}{22}}
\newlabel{ejemplo_02_3sg}{{19}{22}}
\@writefile{lof}{\contentsline {subfigure}{\numberline{(a)}{\ignorespaces {Input}}}{22}}
\@writefile{lof}{\contentsline {subfigure}{\numberline{(b)}{\ignorespaces {Output}}}{22}}
\@writefile{lof}{\contentsline {subfigure}{\numberline{(c)}{\ignorespaces {Segmento (in)}}}{22}}
\@writefile{lof}{\contentsline {subfigure}{\numberline{(d)}{\ignorespaces {Segmento (out)}}}{22}}
\@writefile{lof}{\contentsline {figure}{\numberline {20}{\ignorespaces 3- Segmentos (Beier \& Neely) - Rotaci\IeC {\'o}n de dos segmentos (externa)\relax }}{22}}
\newlabel{ejemplo_03_3sg}{{20}{22}}
\@writefile{lof}{\contentsline {subfigure}{\numberline{(a)}{\ignorespaces {Input}}}{22}}
\@writefile{lof}{\contentsline {subfigure}{\numberline{(b)}{\ignorespaces {Output}}}{22}}
\@writefile{lof}{\contentsline {subfigure}{\numberline{(c)}{\ignorespaces {Segmento (in)}}}{22}}
\@writefile{lof}{\contentsline {subfigure}{\numberline{(d)}{\ignorespaces {Segmento (out)}}}{22}}
\@writefile{lof}{\contentsline {figure}{\numberline {21}{\ignorespaces 3- Segmentos (Beier \& Neely) - Rotaci\IeC {\'o}n y ensanchamiento de un segmento\relax }}{23}}
\newlabel{ejemplo_04_3sg}{{21}{23}}
\@writefile{lof}{\contentsline {subfigure}{\numberline{(a)}{\ignorespaces {Input}}}{23}}
\@writefile{lof}{\contentsline {subfigure}{\numberline{(b)}{\ignorespaces {Output}}}{23}}
\@writefile{lof}{\contentsline {subfigure}{\numberline{(c)}{\ignorespaces {Segmento (in)}}}{23}}
\@writefile{lof}{\contentsline {subfigure}{\numberline{(d)}{\ignorespaces {Segmento (out)}}}{23}}
\@writefile{toc}{\contentsline {subsubsection}{\numberline {3.2.4}4- Segmentos}{23}}
\@writefile{lof}{\contentsline {figure}{\numberline {22}{\ignorespaces 4- Segmentos (Beier \& Neely) - Ensanchamiento proporcional de los segmentos\relax }}{23}}
\newlabel{ejemplo_01_4sg}{{22}{23}}
\@writefile{lof}{\contentsline {subfigure}{\numberline{(a)}{\ignorespaces {Input}}}{23}}
\@writefile{lof}{\contentsline {subfigure}{\numberline{(b)}{\ignorespaces {Output}}}{23}}
\@writefile{lof}{\contentsline {subfigure}{\numberline{(c)}{\ignorespaces {Segmento (in)}}}{23}}
\@writefile{lof}{\contentsline {subfigure}{\numberline{(d)}{\ignorespaces {Segmento (out)}}}{23}}
\@writefile{lof}{\contentsline {figure}{\numberline {23}{\ignorespaces 4- Segmentos (Beier \& Neely) - Encogimiento proporcional de los segmentos\relax }}{23}}
\newlabel{ejemplo_02_4sg}{{23}{23}}
\@writefile{lof}{\contentsline {subfigure}{\numberline{(a)}{\ignorespaces {Input}}}{23}}
\@writefile{lof}{\contentsline {subfigure}{\numberline{(b)}{\ignorespaces {Output}}}{23}}
\@writefile{lof}{\contentsline {subfigure}{\numberline{(c)}{\ignorespaces {Segmento (in)}}}{23}}
\@writefile{lof}{\contentsline {subfigure}{\numberline{(d)}{\ignorespaces {Segmento (out)}}}{23}}
\@writefile{lof}{\contentsline {figure}{\numberline {24}{\ignorespaces 4- Segmentos (Beier \& Neely) - Trapezoide\relax }}{24}}
\newlabel{ejemplo_03_4sg}{{24}{24}}
\@writefile{lof}{\contentsline {subfigure}{\numberline{(a)}{\ignorespaces {Input}}}{24}}
\@writefile{lof}{\contentsline {subfigure}{\numberline{(b)}{\ignorespaces {Output}}}{24}}
\@writefile{lof}{\contentsline {subfigure}{\numberline{(c)}{\ignorespaces {Segmento (in)}}}{24}}
\@writefile{lof}{\contentsline {subfigure}{\numberline{(d)}{\ignorespaces {Segmento (out)}}}{24}}
\@writefile{lof}{\contentsline {figure}{\numberline {25}{\ignorespaces 4- Segmentos (Beier \& Neely) - Rombo\relax }}{24}}
\newlabel{ejemplo_04_4sg}{{25}{24}}
\@writefile{lof}{\contentsline {subfigure}{\numberline{(a)}{\ignorespaces {Input}}}{24}}
\@writefile{lof}{\contentsline {subfigure}{\numberline{(b)}{\ignorespaces {Output}}}{24}}
\@writefile{lof}{\contentsline {subfigure}{\numberline{(c)}{\ignorespaces {Segmento (in)}}}{24}}
\@writefile{lof}{\contentsline {subfigure}{\numberline{(d)}{\ignorespaces {Segmento (out)}}}{24}}
\@writefile{toc}{\contentsline {subsubsection}{\numberline {3.2.5}N- Segmentos}{24}}
\@writefile{toc}{\contentsline {subsection}{\numberline {3.3}Ejemplos Morphing Polyline}{25}}
\@writefile{toc}{\contentsline {subsubsection}{\numberline {3.3.1}1- Segmentos}{25}}
\@writefile{toc}{\contentsline {subsubsection}{\numberline {3.3.2}2- Segmentos}{25}}
\@writefile{toc}{\contentsline {subsubsection}{\numberline {3.3.3}3- Segmentos}{25}}
\@writefile{toc}{\contentsline {subsubsection}{\numberline {3.3.4}4- Segmentos}{25}}
\@writefile{toc}{\contentsline {subsubsection}{\numberline {3.3.5}N- Segmentos}{25}}
\@writefile{toc}{\contentsline {subsection}{\numberline {3.4}Comparaciones}{25}}
\@writefile{toc}{\contentsline {subsection}{\numberline {3.5}Resultados}{25}}
\@writefile{toc}{\contentsline {section}{\numberline {4}Conclusiones}{25}}
\@writefile{toc}{\contentsline {subsection}{\numberline {4.1}Discusi\IeC {\'o}n}{25}}
\@writefile{toc}{\contentsline {subsection}{\numberline {4.2}Mejoras}{25}}
\@writefile{toc}{\contentsline {section}{\numberline {5}Informe de la instituci\IeC {\'o}n sobre las actividades del estudiante}{25}}
\@writefile{toc}{\contentsline {subsection}{\numberline {5.1}Fecha de inicio y fin de las pr\IeC {\'a}cticas}{25}}
\@writefile{toc}{\contentsline {subsection}{\numberline {5.2}Asistencia a la instituci\IeC {\'o}n para realizar las pr\IeC {\'a}cticas}{25}}
\@writefile{toc}{\contentsline {subsection}{\numberline {5.3}Rendimiento profesional del estudiante}{25}}
\@writefile{toc}{\contentsline {subsection}{\numberline {5.4}Informe t\IeC {\'e}cnico de la instituci\IeC {\'o}n}{25}}
\bibcite{imagendef}{1}
\bibcite{procdef}{2}
\bibcite{morph1}{3}
\bibcite{transformgeo}{4}
\bibcite{beier}{5}
\@writefile{toc}{\contentsline {section}{\numberline {6}Bibliograf\IeC {\'\i }a}{26}}
\newlabel{LastPage}{{}{26}}
\xdef\lastpage@lastpage{26}
\gdef\lastpage@lastpageHy{}
