\select@language {spanish}
\contentsline {figure}{\numberline {1}{\ignorespaces Ejemplo transformaci\IeC {\'o}n ``empuje en direcci\IeC {\'o}n horizontal'' \cite {transformgeo}.\relax }}{9}
\contentsline {figure}{\numberline {2}{\ignorespaces ``Empuje en direcci\IeC {\'o}n horizontal'' imagen en escala de grises.\relax }}{9}
\contentsline {subfigure}{\numberline {(a)}{\ignorespaces {Imagen inicial}}}{9}
\contentsline {subfigure}{\numberline {(b)}{\ignorespaces {Imagen final}}}{9}
\contentsline {figure}{\numberline {3}{\ignorespaces M\IeC {\'e}todo de transformaci\IeC {\'o}n ``P\IeC {\'\i }xel mas cercano''. Obtenida de \textit {Presentaci\IeC {\'o}n web: Interpolaci\IeC {\'o}n de imagen}\relax }}{10}
\contentsline {subfigure}{\numberline {(a)}{\ignorespaces {Imagen inicial}}}{10}
\contentsline {subfigure}{\numberline {(b)}{\ignorespaces {Imagen final}}}{10}
\contentsline {figure}{\numberline {4}{\ignorespaces M\IeC {\'e}todo de transformaci\IeC {\'o}n ``Bilineal''. Obtenida de \textit {Presentaci\IeC {\'o}n web: Interpolaci\IeC {\'o}n de imagen}\relax }}{10}
\contentsline {subfigure}{\numberline {(a)}{\ignorespaces {Imagen inicial}}}{10}
\contentsline {subfigure}{\numberline {(b)}{\ignorespaces {Imagen final}}}{10}
\contentsline {figure}{\numberline {5}{\ignorespaces M\IeC {\'e}todo de transformaci\IeC {\'o}n ``Bic\IeC {\'u}bica''. Obtenida de \textit {Presentaci\IeC {\'o}n web: Interpolaci\IeC {\'o}n de imagen}\relax }}{11}
\contentsline {subfigure}{\numberline {(a)}{\ignorespaces {Imagen inicial}}}{11}
\contentsline {subfigure}{\numberline {(b)}{\ignorespaces {Imagen final}}}{11}
\contentsline {figure}{\numberline {6}{\ignorespaces Par de segmentos simples. [Adaptado de\cite {beier}]\relax }}{13}
\contentsline {subfigure}{\numberline {(a)}{\ignorespaces {Imagen destino}}}{13}
\contentsline {subfigure}{\numberline {(b)}{\ignorespaces {Imagen origen}}}{13}
\contentsline {figure}{\numberline {7}{\ignorespaces Ejemplos de un solo segmento. [Adaptado de\cite {beier}]\relax }}{13}
\contentsline {subfigure}{\numberline {(a)}{\ignorespaces {}}}{13}
\contentsline {subfigure}{\numberline {(b)}{\ignorespaces {}}}{13}
\contentsline {subfigure}{\numberline {(c)}{\ignorespaces {}}}{13}
\contentsline {subfigure}{\numberline {(d)}{\ignorespaces {}}}{13}
\contentsline {figure}{\numberline {8}{\ignorespaces Par de segmentos m\IeC {\'u}ltiples. [Adaptado de\cite {beier}]\relax }}{15}
\contentsline {subfigure}{\numberline {(a)}{\ignorespaces {Imagen destino}}}{15}
\contentsline {subfigure}{\numberline {(b)}{\ignorespaces {Imagen origen}}}{15}
\contentsline {figure}{\numberline {9}{\ignorespaces Ejemplo con dos segmentos. [Adaptado de\cite {beier}]\relax }}{15}
\contentsline {subfigure}{\numberline {(a)}{\ignorespaces {Imagen origen}}}{15}
\contentsline {subfigure}{\numberline {(b)}{\ignorespaces {Segmentos finales}}}{15}
\contentsline {subfigure}{\numberline {(c)}{\ignorespaces {Imagen destino}}}{15}
\contentsline {figure}{\numberline {10}{\ignorespaces 1- Segmento (Beier \& Neely) - Traslaci\IeC {\'o}n\relax }}{17}
\contentsline {subfigure}{\numberline {(a)}{\ignorespaces {Input}}}{17}
\contentsline {subfigure}{\numberline {(b)}{\ignorespaces {Output}}}{17}
\contentsline {subfigure}{\numberline {(c)}{\ignorespaces {Segmento (in)}}}{17}
\contentsline {subfigure}{\numberline {(d)}{\ignorespaces {Segmento (out)}}}{17}
\contentsline {figure}{\numberline {11}{\ignorespaces 1- Segmento (Beier \& Neely) - Ensanchamiento\relax }}{18}
\contentsline {subfigure}{\numberline {(a)}{\ignorespaces {Input}}}{18}
\contentsline {subfigure}{\numberline {(b)}{\ignorespaces {Output}}}{18}
\contentsline {subfigure}{\numberline {(c)}{\ignorespaces {Segmento (in)}}}{18}
\contentsline {subfigure}{\numberline {(d)}{\ignorespaces {Segmento (out)}}}{18}
\contentsline {figure}{\numberline {12}{\ignorespaces 1- Segmento (Beier \& Neely) - Rotaci\IeC {\'o}n\relax }}{18}
\contentsline {subfigure}{\numberline {(a)}{\ignorespaces {Input}}}{18}
\contentsline {subfigure}{\numberline {(b)}{\ignorespaces {Output}}}{18}
\contentsline {subfigure}{\numberline {(c)}{\ignorespaces {Segmento (in)}}}{18}
\contentsline {subfigure}{\numberline {(d)}{\ignorespaces {Segmento (out)}}}{18}
\contentsline {figure}{\numberline {13}{\ignorespaces 1- Segmento (Beier \& Neely) - Traslaci\IeC {\'o}n y rotaci\IeC {\'o}n\relax }}{19}
\contentsline {subfigure}{\numberline {(a)}{\ignorespaces {Input}}}{19}
\contentsline {subfigure}{\numberline {(b)}{\ignorespaces {Output}}}{19}
\contentsline {subfigure}{\numberline {(c)}{\ignorespaces {Segmento (in)}}}{19}
\contentsline {subfigure}{\numberline {(d)}{\ignorespaces {Segmento (out)}}}{19}
\contentsline {figure}{\numberline {14}{\ignorespaces 2- Segmentos (Beier \& Neely) - Rotaci\IeC {\'o}n de uno de los dos segmentos\relax }}{19}
\contentsline {subfigure}{\numberline {(a)}{\ignorespaces {Input}}}{19}
\contentsline {subfigure}{\numberline {(b)}{\ignorespaces {Output}}}{19}
\contentsline {subfigure}{\numberline {(c)}{\ignorespaces {Segmento (in)}}}{19}
\contentsline {subfigure}{\numberline {(d)}{\ignorespaces {Segmento (out)}}}{19}
\contentsline {figure}{\numberline {15}{\ignorespaces 2- Segmentos (Beier \& Neely) - Rotaci\IeC {\'o}n de ambos segmentos (interior)\relax }}{20}
\contentsline {subfigure}{\numberline {(a)}{\ignorespaces {Input}}}{20}
\contentsline {subfigure}{\numberline {(b)}{\ignorespaces {Output}}}{20}
\contentsline {subfigure}{\numberline {(c)}{\ignorespaces {Segmento (in)}}}{20}
\contentsline {subfigure}{\numberline {(d)}{\ignorespaces {Segmento (out)}}}{20}
\contentsline {figure}{\numberline {16}{\ignorespaces 2- Segmentos (Beier \& Neely) - Rotaci\IeC {\'o}n de ambos segmentos (exterior)\relax }}{20}
\contentsline {subfigure}{\numberline {(a)}{\ignorespaces {Input}}}{20}
\contentsline {subfigure}{\numberline {(b)}{\ignorespaces {Output}}}{20}
\contentsline {subfigure}{\numberline {(c)}{\ignorespaces {Segmento (in)}}}{20}
\contentsline {subfigure}{\numberline {(d)}{\ignorespaces {Segmento (out)}}}{20}
\contentsline {figure}{\numberline {17}{\ignorespaces 2- Segmentos (Beier \& Neely) - Reducci\IeC {\'o}n de ambos segmentos\relax }}{21}
\contentsline {subfigure}{\numberline {(a)}{\ignorespaces {Input}}}{21}
\contentsline {subfigure}{\numberline {(b)}{\ignorespaces {Output}}}{21}
\contentsline {subfigure}{\numberline {(c)}{\ignorespaces {Segmento (in)}}}{21}
\contentsline {subfigure}{\numberline {(d)}{\ignorespaces {Segmento (out)}}}{21}
\contentsline {figure}{\numberline {18}{\ignorespaces 3- Segmentos (Beier \& Neely) - Rotaci\IeC {\'o}n de un segmento\relax }}{22}
\contentsline {subfigure}{\numberline {(a)}{\ignorespaces {Input}}}{22}
\contentsline {subfigure}{\numberline {(b)}{\ignorespaces {Output}}}{22}
\contentsline {subfigure}{\numberline {(c)}{\ignorespaces {Segmento (in)}}}{22}
\contentsline {subfigure}{\numberline {(d)}{\ignorespaces {Segmento (out)}}}{22}
\contentsline {figure}{\numberline {19}{\ignorespaces 3- Segmentos (Beier \& Neely) - Rotaci\IeC {\'o}n de dos segmentos (interna)\relax }}{22}
\contentsline {subfigure}{\numberline {(a)}{\ignorespaces {Input}}}{22}
\contentsline {subfigure}{\numberline {(b)}{\ignorespaces {Output}}}{22}
\contentsline {subfigure}{\numberline {(c)}{\ignorespaces {Segmento (in)}}}{22}
\contentsline {subfigure}{\numberline {(d)}{\ignorespaces {Segmento (out)}}}{22}
\contentsline {figure}{\numberline {20}{\ignorespaces 3- Segmentos (Beier \& Neely) - Rotaci\IeC {\'o}n de dos segmentos (externa)\relax }}{22}
\contentsline {subfigure}{\numberline {(a)}{\ignorespaces {Input}}}{22}
\contentsline {subfigure}{\numberline {(b)}{\ignorespaces {Output}}}{22}
\contentsline {subfigure}{\numberline {(c)}{\ignorespaces {Segmento (in)}}}{22}
\contentsline {subfigure}{\numberline {(d)}{\ignorespaces {Segmento (out)}}}{22}
\contentsline {figure}{\numberline {21}{\ignorespaces 3- Segmentos (Beier \& Neely) - Rotaci\IeC {\'o}n y ensanchamiento de un segmento\relax }}{23}
\contentsline {subfigure}{\numberline {(a)}{\ignorespaces {Input}}}{23}
\contentsline {subfigure}{\numberline {(b)}{\ignorespaces {Output}}}{23}
\contentsline {subfigure}{\numberline {(c)}{\ignorespaces {Segmento (in)}}}{23}
\contentsline {subfigure}{\numberline {(d)}{\ignorespaces {Segmento (out)}}}{23}
\contentsline {figure}{\numberline {22}{\ignorespaces 4- Segmentos (Beier \& Neely) - Ensanchamiento proporcional de los segmentos\relax }}{23}
\contentsline {subfigure}{\numberline {(a)}{\ignorespaces {Input}}}{23}
\contentsline {subfigure}{\numberline {(b)}{\ignorespaces {Output}}}{23}
\contentsline {subfigure}{\numberline {(c)}{\ignorespaces {Segmento (in)}}}{23}
\contentsline {subfigure}{\numberline {(d)}{\ignorespaces {Segmento (out)}}}{23}
\contentsline {figure}{\numberline {23}{\ignorespaces 4- Segmentos (Beier \& Neely) - Encogimiento proporcional de los segmentos\relax }}{23}
\contentsline {subfigure}{\numberline {(a)}{\ignorespaces {Input}}}{23}
\contentsline {subfigure}{\numberline {(b)}{\ignorespaces {Output}}}{23}
\contentsline {subfigure}{\numberline {(c)}{\ignorespaces {Segmento (in)}}}{23}
\contentsline {subfigure}{\numberline {(d)}{\ignorespaces {Segmento (out)}}}{23}
\contentsline {figure}{\numberline {24}{\ignorespaces 4- Segmentos (Beier \& Neely) - Trapezoide\relax }}{24}
\contentsline {subfigure}{\numberline {(a)}{\ignorespaces {Input}}}{24}
\contentsline {subfigure}{\numberline {(b)}{\ignorespaces {Output}}}{24}
\contentsline {subfigure}{\numberline {(c)}{\ignorespaces {Segmento (in)}}}{24}
\contentsline {subfigure}{\numberline {(d)}{\ignorespaces {Segmento (out)}}}{24}
\contentsline {figure}{\numberline {25}{\ignorespaces 4- Segmentos (Beier \& Neely) - Rombo\relax }}{24}
\contentsline {subfigure}{\numberline {(a)}{\ignorespaces {Input}}}{24}
\contentsline {subfigure}{\numberline {(b)}{\ignorespaces {Output}}}{24}
\contentsline {subfigure}{\numberline {(c)}{\ignorespaces {Segmento (in)}}}{24}
\contentsline {subfigure}{\numberline {(d)}{\ignorespaces {Segmento (out)}}}{24}
